<svg width="62" height="62" viewBox="0 0 62 62" fill="none" xmlns="http://www.w3.org/2000/svg">
    <path d="M31 0C13.875 0 0 14 0 31C0 48.125 13.875 62 31 62C48 62 62 48.125 62 31C62 14 48 0 31 0ZM31 6C44.75 6 56 17.25 56 31C56 44.875 44.75 56 31 56C17.125 56 6 44.875 6 31C6 17.25 17.125 6 31 6ZM48.5 22.375L45.625 19.5C45.125 18.875 44.125 18.875 43.5 19.5L25.875 37L18.375 29.5C17.75 28.875 16.875 28.875 16.25 29.5L13.375 32.25C12.875 32.875 12.875 33.875 13.375 34.375L24.75 45.875C25.375 46.5 26.25 46.5 26.875 45.875L48.5 24.5C49 23.875 49 22.875 48.5 22.375Z" fill="#1BC755"/>
</svg>
