<svg width="18" height="19" viewBox="0 0 18 19" fill="none" xmlns="http://www.w3.org/2000/svg">
<path d="M15.7812 7.85156L15.1797 7.22266C14.9062 6.97656 14.4961 6.97656 14.25 7.22266L14.0859 7.38672L10.9961 4.29688L11.1602 4.13281C11.4062 3.88672 11.4062 3.47656 11.1602 3.20312L10.5312 2.60156C10.2852 2.32812 9.875 2.32812 9.60156 2.60156L6.21094 5.99219C5.9375 6.23828 5.9375 6.67578 6.21094 6.92188L6.8125 7.55078C7.08594 7.79688 7.49609 7.79688 7.74219 7.55078L7.90625 7.38672L9 8.45312L6.78516 10.6953L6.62109 10.5312C6.26562 10.1758 5.71875 10.1758 5.39062 10.5312L2.24609 13.6758C1.89062 14.0039 1.89062 14.5508 2.24609 14.9062L3.47656 16.1367C3.83203 16.4922 4.37891 16.4922 4.70703 16.1367L7.85156 12.9922C8.20703 12.6641 8.20703 12.1172 7.85156 11.7617L7.6875 11.5977L9.92969 9.38281L10.9961 10.4766L10.832 10.6406C10.5859 10.8867 10.5859 11.2969 10.832 11.5703L11.4609 12.1719C11.707 12.4453 12.1445 12.4453 12.3906 12.1719L15.7812 8.78125C16.0547 8.50781 16.0547 8.09766 15.7812 7.85156Z" fill="#D81023"/>
</svg>
