<svg width="14" height="10" viewBox="0 0 14 10" fill="none" xmlns="http://www.w3.org/2000/svg">
<path d="M6.46875 8.9375C6.75 9.21875 7.21875 9.21875 7.5 8.9375L13.5938 2.875C13.875 2.5625 13.875 2.09375 13.5938 1.8125L12.875 1.09375C12.5938 0.8125 12.125 0.8125 11.8125 1.09375L7 5.90625L2.15625 1.09375C1.84375 0.8125 1.375 0.8125 1.09375 1.09375L0.375 1.8125C0.09375 2.09375 0.09375 2.5625 0.375 2.875L6.46875 8.9375Z" fill="#42484E"/>
</svg>
