<svg width="29" height="29" viewBox="0 0 29 29" fill="none" xmlns="http://www.w3.org/2000/svg">
<rect width="29" height="29" rx="14.5" fill="white"/>
<path d="M11.725 7.1531C12.854 6.12544 14.1924 5.80103 15.4587 6.11469C16.1254 6.27616 16.7781 6.74216 17.249 7.56012C17.7393 8.66044 17.8275 10.203 17.5047 11.4527C16.0794 11.4499 14.6542 11.4477 13.2292 11.4539C13.1557 11.4534 13.0825 11.4493 13.0093 11.4449C13.0675 10.8935 13.1233 10.3411 13.1798 9.78976C13.982 9.78227 14.784 9.79482 15.5857 9.78292C15.5967 9.39708 15.518 8.9912 15.3342 8.7424C15.1091 8.36145 14.7778 8.24609 14.471 8.18645C13.9163 8.09651 13.3202 8.2091 12.8489 8.74109C12.3661 9.27879 12.0988 10.2274 12.0321 11.1681C11.996 11.7592 12.0862 12.4559 12.407 12.7924C12.6524 13.159 12.995 13.2527 13.3116 13.3016C14.1107 13.3648 14.9075 13.1471 15.6834 12.8463C17.3478 12.1683 18.9518 11.1135 20.4982 9.89665C20.325 9.87726 20.1512 9.89372 19.978 9.88525C20.9201 9.25093 21.8666 8.63029 22.8176 8.03345C22.5537 8.35069 22.2544 8.58369 22.0048 8.93206C20.9178 9.98708 19.8714 11.1601 18.7928 12.2412C17.7308 13.3351 16.631 14.3639 15.436 14.9942C14.0218 15.7411 12.4195 16.0008 11.0345 14.9557C10.7979 14.7112 10.586 14.3866 10.4005 14.0389C9.95372 13.138 9.87719 11.8825 10.0113 10.769C10.1795 9.1776 10.8952 7.90163 11.725 7.1531Z" fill="#EE3B21"/>
<path d="M7.07672 17.9699C7.19835 17.9693 7.32094 17.9882 7.44179 17.9608C7.84326 17.9818 8.24492 17.9727 8.64678 17.9665C8.6256 17.9295 8.60559 17.892 8.58304 17.8578C8.57045 17.6198 8.43497 17.4873 8.32125 17.3885C7.89157 17.0804 7.36311 17.376 7.07672 17.9699ZM6.13225 18.0001C6.5548 16.7472 7.47488 16.137 8.30827 16.2234C8.79964 16.267 9.31482 16.6599 9.53162 17.4361C9.60599 17.8591 9.59165 18.3121 9.49179 18.7201C8.63312 18.7372 7.77376 18.7127 6.91498 18.732C6.94534 18.9265 6.98966 19.1196 7.07672 19.264C7.4492 19.8228 8.05126 19.6141 8.39309 19.0798C8.40607 19.0652 8.43223 19.0344 8.44522 19.0197C8.48367 19.0401 8.52243 19.0611 8.56127 19.0821C8.75435 19.2374 8.95455 19.3635 9.14762 19.5182C9.11219 19.5755 9.07714 19.6329 9.03995 19.6868C8.29509 20.7197 7.12133 21.0328 6.30258 20.0581C5.98515 19.5198 5.89935 18.6604 6.13225 18.0001Z" fill="#EE3B21"/>
<path d="M11.0538 16.7525C11.5253 16.3819 12.062 16.1058 12.5846 16.3081C12.8346 16.3945 13.076 16.6503 13.173 17.0589C13.0895 18.1974 12.8679 19.2961 12.7181 20.4145C12.462 20.4213 12.2057 20.4173 11.9493 20.4186C11.8852 20.4173 11.8213 20.4134 11.7572 20.4083C11.8573 19.7178 11.958 19.0277 12.0572 18.3367C12.0875 18.1154 12.1389 17.892 12.1147 17.6625C12.0559 17.2419 11.7596 17.1538 11.5404 17.1875C11.1675 17.1992 10.8012 17.5857 10.6742 18.1821C10.5338 18.9085 10.4494 19.6614 10.3224 20.3928C10.0714 20.4567 9.81375 20.3998 9.56045 20.4168C9.49437 20.4168 9.42868 20.4168 9.36328 20.4173C9.42692 19.97 9.50052 19.5268 9.56416 19.0794C9.61453 18.7465 9.66968 18.4156 9.71429 18.0802C9.80419 17.5158 9.88794 16.9493 9.97276 16.3826C10.2816 16.3797 10.5907 16.3792 10.8996 16.3832C10.8825 16.4991 10.8655 16.6149 10.8488 16.7314C10.8383 16.8059 10.8277 16.881 10.8175 16.9566C10.8964 16.889 10.9744 16.8196 11.0538 16.7525Z" fill="#EE3B21"/>
<path d="M18.7575 18.1555C18.6319 18.4915 18.6367 18.9762 18.824 19.2479C19.1862 19.7935 19.7694 19.5969 20.1195 19.1151C20.3238 18.8341 20.5117 18.3261 20.3714 17.8911C20.3156 17.5746 20.1222 17.3985 19.9424 17.3245C19.4978 17.1733 18.997 17.5042 18.7575 18.1555ZM17.8567 17.9634C18.4262 16.4994 19.6745 15.8338 20.6282 16.5924C20.6374 16.5504 20.6557 16.4663 20.6649 16.4248C20.9571 16.4232 21.2492 16.4259 21.5416 16.4232C21.524 16.5419 21.507 16.6607 21.4883 16.7788C21.2993 17.9901 21.111 19.2019 20.925 20.4142C20.6271 20.4239 20.3288 20.413 20.0309 20.4204C20.03 20.3726 20.0275 20.2771 20.0265 20.23C19.3748 20.6551 18.5513 20.7148 17.9925 19.91C17.8362 19.619 17.7435 19.2492 17.7188 18.8614C17.7419 18.5532 17.7899 18.2526 17.8567 17.9634Z" fill="#EE3B21"/>
<path d="M13.1782 16.3669C13.5447 16.3703 13.911 16.3577 14.2773 16.3737C14.2922 16.4892 14.3077 16.6046 14.3226 16.72C14.4187 17.4504 14.5167 18.18 14.6138 18.9098C14.6383 18.8582 14.6632 18.8064 14.6881 18.7546C15.0346 17.9822 15.3751 17.2019 15.7207 16.4276C15.7502 16.3424 15.8174 16.3744 15.8657 16.3652C16.1892 16.3703 16.5127 16.3618 16.8362 16.3709C16.784 16.4902 16.7299 16.6074 16.674 16.7222C16.0806 17.9505 15.4878 19.1798 14.8974 20.412C14.5923 20.425 14.2873 20.4147 13.9821 20.4177H13.9011C13.6587 19.0677 13.4176 17.7179 13.1782 16.3669Z" fill="#EE3B21"/>
<path d="M16.8821 16.7237C16.9005 16.6028 16.9216 16.4822 16.9448 16.3633C17.2625 16.3706 17.5805 16.3639 17.8984 16.368C17.8858 16.4526 17.8725 16.5373 17.859 16.6215C17.8453 16.7033 17.8308 16.7845 17.8168 16.8658C17.5709 16.9779 17.3231 17.075 17.0776 17.1858C16.9822 17.228 16.8862 17.2671 16.7905 17.3052C16.799 17.2443 16.8164 17.1227 16.8249 17.062C16.8454 16.9494 16.8641 16.8368 16.8821 16.7237Z" fill="#EE3B21"/>
<path d="M17.0395 17.4661C17.285 17.375 17.5239 17.2297 17.7746 17.1836C17.7538 17.3206 17.733 17.4581 17.7119 17.5952C17.568 18.534 17.428 19.4747 17.2853 20.4135C17.0232 20.4215 16.7609 20.4165 16.4991 20.4181C16.4341 20.4169 16.3694 20.4165 16.3047 20.4153C16.4491 19.4854 16.5907 18.5533 16.7446 17.6286C16.8196 17.5173 16.9438 17.5246 17.0395 17.4661Z" fill="#EE3B21"/>
<path d="M17.2486 7.56006C17.6786 8.15641 17.8864 9.11172 17.8839 10.0297C17.8785 10.6021 17.8615 11.2022 17.7004 11.7212C16.2026 11.7195 14.7049 11.7205 13.207 11.72C13.2142 11.6314 13.2214 11.5428 13.2288 11.4541C14.6538 11.4478 16.079 11.45 17.5043 11.4528C17.8271 10.2031 17.7389 8.66054 17.2486 7.56006Z" fill="#181817"/>
<path d="M12.8487 8.74128C13.3198 8.20929 13.9161 8.09686 14.4707 8.18648C14.7775 8.24627 15.1088 8.36163 15.3339 8.74242C14.6471 8.28261 13.8258 8.30314 13.1667 8.88336C12.6014 9.40004 12.2807 10.4606 12.2246 11.5047C12.1966 11.9565 12.2685 12.405 12.4067 12.7926C12.086 12.4561 11.9958 11.7594 12.0319 11.1682C12.0985 10.2276 12.3659 9.27898 12.8487 8.74128Z" fill="#181817"/>
<path d="M22.0051 8.93216C22.3429 8.75195 22.6629 8.49157 23.0003 8.30908C21.9737 9.4226 20.9291 10.4912 19.8928 11.5789C18.9217 12.5758 17.9602 13.6135 16.9241 14.4162C15.4402 15.5693 13.7534 16.2771 12.1205 15.7234C11.7378 15.5752 11.3469 15.3653 11.0347 14.9555C12.4198 16.0009 14.022 15.741 15.4362 14.9943C16.6312 14.3639 17.731 13.3352 18.793 12.2409C19.8716 11.16 20.918 9.98686 22.0051 8.93216Z" fill="#181817"/>
<path d="M17.8169 16.866C17.8309 16.7847 17.8454 16.7034 17.8591 16.6216C17.934 16.6221 18.0089 16.6227 18.0842 16.6232C18.0617 16.7863 18.0361 16.9483 18.0072 17.1091C17.9306 17.1415 17.8536 17.1728 17.7747 17.1836C17.524 17.2297 17.285 17.375 17.0396 17.4661C17.0521 17.3722 17.0647 17.279 17.0777 17.1858C17.3232 17.075 17.571 16.9779 17.8169 16.866Z" fill="#181817"/>
<path d="M10.8184 16.9565C10.8286 16.8809 10.8392 16.8059 10.8497 16.7314C10.9181 16.736 10.9862 16.7415 11.0547 16.7523C10.9753 16.8194 10.8973 16.8888 10.8184 16.9565Z" fill="#181817"/>
<path d="M14.3228 16.7197C14.3466 16.7289 14.3942 16.7458 14.4181 16.7549C14.5151 17.4182 14.5963 18.0889 14.6882 18.7543C14.6633 18.8062 14.6384 18.858 14.6139 18.9096C14.5169 18.1798 14.4188 17.4502 14.3228 16.7197Z" fill="#181817"/>
<path d="M14.8977 20.4116C15.4881 19.1794 16.0808 17.9501 16.6743 16.7217C16.7434 16.7217 16.8129 16.7223 16.8823 16.7235C16.8644 16.8366 16.8456 16.9491 16.8251 17.0617C16.2273 18.2952 15.6314 19.5312 15.0376 20.7709C14.7049 20.7691 14.372 20.7775 14.0389 20.7656C14.0198 20.6498 14.0008 20.5338 13.9824 20.4173C14.2875 20.4144 14.5926 20.4246 14.8977 20.4116Z" fill="#181817"/>
<path d="M21.4884 16.7788C21.5534 16.7788 21.6188 16.7795 21.6842 16.7806C21.4791 18.1107 21.2718 19.4394 21.0661 20.7693C20.7631 20.7744 20.4601 20.7705 20.1574 20.7716C20.1669 20.7042 20.1768 20.6369 20.187 20.5699C19.678 20.9114 19.0896 21.0235 18.5673 20.6989C18.3351 20.5448 18.1067 20.2931 17.9927 19.91C18.5514 20.7147 19.3749 20.6551 20.0267 20.23C20.0276 20.2771 20.0301 20.3726 20.0311 20.4203C20.329 20.413 20.6273 20.4239 20.9252 20.4141C21.1111 19.2019 21.2994 17.9901 21.4884 16.7788Z" fill="#181817"/>
<path d="M13.1734 17.0586C13.2871 17.2274 13.3419 17.4928 13.2993 17.7411C13.1679 18.7562 13.0106 19.7611 12.8621 20.77C12.5414 20.7739 12.2207 20.7705 11.8999 20.7716C11.9166 20.6535 11.933 20.5359 11.9497 20.4182C12.206 20.4171 12.4624 20.421 12.7186 20.4141C12.8683 19.2957 13.09 18.197 13.1734 17.0586Z" fill="#181817"/>
<path d="M10.6743 18.1817C10.8012 17.5855 11.1677 17.199 11.5405 17.1871C11.7598 17.1536 12.056 17.2417 12.1149 17.6623C11.6372 17.3247 10.9954 17.689 10.8156 18.5358C10.6808 19.2703 10.5813 20.0221 10.469 20.7672C10.1476 20.777 9.82621 20.7701 9.50439 20.7706C9.52245 20.6525 9.5409 20.5342 9.56062 20.4166C9.81392 20.3995 10.0717 20.4563 10.3227 20.3928C10.4496 19.6612 10.5341 18.9081 10.6743 18.1817Z" fill="#181817"/>
<path d="M7.07617 17.9701C7.36256 17.3762 7.89102 17.0806 8.3207 17.3887C8.43442 17.4875 8.5699 17.6199 8.58249 17.858C8.23666 17.4625 7.77691 17.6097 7.44123 17.961C7.32039 17.9883 7.19779 17.9694 7.07617 17.9701Z" fill="#181817"/>
<path d="M18.7575 18.1558C18.997 17.5045 19.4978 17.1736 19.9424 17.3248C20.1222 17.3988 20.3156 17.5749 20.3714 17.8913C19.9986 17.4744 19.4848 17.6186 19.143 18.058C18.9258 18.328 18.7647 18.785 18.824 19.2481C18.6367 18.9765 18.6319 18.4918 18.7575 18.1558Z" fill="#181817"/>
<path d="M9.53118 17.4365C9.6283 17.6162 9.6773 17.8497 9.7144 18.08C9.66979 18.4153 9.61474 18.7461 9.56427 19.0791C9.22986 19.0843 8.89525 19.0786 8.56094 19.0827C8.52199 19.0615 8.48324 19.0405 8.44478 19.0201C8.4318 19.0348 8.40564 19.0656 8.39266 19.0802C7.95068 19.0819 7.50909 19.0827 7.06721 19.0791C7.07024 19.1405 7.07326 19.2024 7.07639 19.2644C6.98922 19.12 6.94491 18.9269 6.91455 18.7324C7.77332 18.7131 8.63278 18.7376 9.49136 18.7205C9.59121 18.3125 9.60556 17.8595 9.53118 17.4365Z" fill="#181817"/>
<path d="M17.7116 17.595C17.78 17.5666 17.8488 17.5388 17.9176 17.5127C17.8972 17.6626 17.8774 17.8133 17.8564 17.9634C17.7896 18.2528 17.7416 18.5534 17.7184 18.8613C17.6153 19.4957 17.5233 20.1345 17.427 20.7711C17.0995 20.7716 16.7719 20.7728 16.4443 20.7706C16.4624 20.6528 16.4807 20.5352 16.4988 20.4182C16.7606 20.4164 17.0229 20.4216 17.285 20.4135C17.4277 19.4748 17.5676 18.534 17.7116 17.595Z" fill="#181817"/>
<path d="M6.30273 20.058C7.12168 21.0329 8.29525 20.7196 9.04031 19.687C9.12474 19.7489 9.20985 19.8097 9.2939 19.8741C8.77881 20.6992 8.03756 21.1 7.32998 20.9783C6.94052 20.9027 6.51455 20.6435 6.30273 20.058Z" fill="#181817"/>
</svg>
