<svg width="29" height="29" viewBox="0 0 29 29" fill="none" xmlns="http://www.w3.org/2000/svg">
<rect width="29" height="29" rx="14.5" fill="#009A44"/>
<path fill-rule="evenodd" clip-rule="evenodd" d="M19.7344 11.2666C18.976 9.92775 17.4874 9.17823 15.6955 9.17823C12.8975 9.27362 10.3867 10.9542 9.19062 13.5323H8.39858C8.0575 13.531 7.74237 13.3466 7.56943 13.0472C7.3965 12.7477 7.39138 12.3776 7.55598 12.0733C10.3984 7.34161 17.8188 5.94555 19.7344 11.2666Z" fill="url(#paint0_linear_124_35)"/>
<path fill-rule="evenodd" clip-rule="evenodd" d="M19.734 11.2607H21.981C20.984 8.61721 18.4513 6.90816 15.6727 7.00382C12.2855 7.07466 9.19759 8.99588 7.58936 12.0331C10.398 7.33567 17.8241 5.95678 19.734 11.2607Z" fill="white"/>
<path fill-rule="evenodd" clip-rule="evenodd" d="M9.27428 17.7487H7.02734C7.90927 20.3234 10.3978 21.9998 13.3244 21.9998C16.6814 21.9385 19.7515 20.0587 21.3796 17.0679C18.9979 21.1016 11.5605 23.2586 9.27428 17.7487Z" fill="white"/>
<path fill-rule="evenodd" clip-rule="evenodd" d="M21.689 14.2475C21.3439 13.7737 20.7902 13.5057 20.2116 13.5323H8.41521C8.09953 13.5274 7.80564 13.3674 7.62617 13.1029C7.44669 12.8383 7.40373 12.5017 7.51082 12.1992C7.35833 12.5089 7.22512 12.828 7.11199 13.1547C6.90918 13.7006 6.9849 14.3134 7.31421 14.7911C7.65634 15.2717 8.20891 15.5499 8.79157 15.5349H20.588C20.9033 15.5632 21.1866 15.7428 21.3508 16.0185C21.515 16.2942 21.5404 16.633 21.4193 16.9309C21.6036 16.5766 21.7632 16.2095 21.8968 15.8324C22.0881 15.3015 22.0104 14.7087 21.689 14.2475Z" fill="white"/>
<path fill-rule="evenodd" clip-rule="evenodd" d="M20.554 15.5342H19.7957C18.6028 18.1091 16.0959 19.7879 13.302 19.8826C11.6795 19.965 10.1395 19.149 9.27441 17.7484C11.5719 23.264 19.0373 21.0898 21.3854 17.0504C21.5557 16.7414 21.5561 16.3645 21.3865 16.0552C21.2169 15.7458 20.9016 15.5485 20.554 15.5342Z" fill="url(#paint1_linear_124_35)"/>
<defs>
<linearGradient id="paint0_linear_124_35" x1="7.42678" y1="10.6944" x2="19.7344" y2="10.6944" gradientUnits="userSpaceOnUse">
<stop stop-color="#C5C5C5"/>
<stop offset="0.2" stop-color="#DADADA"/>
<stop offset="0.47" stop-color="#EEEEEE"/>
<stop offset="0.74" stop-color="#FBFBFB"/>
<stop offset="1" stop-color="white"/>
</linearGradient>
<linearGradient id="paint1_linear_124_35" x1="9.26318" y1="18.2977" x2="21.509" y2="18.2977" gradientUnits="userSpaceOnUse">
<stop stop-color="white"/>
<stop offset="0.26" stop-color="#FBFBFB"/>
<stop offset="0.53" stop-color="#EEEEEE"/>
<stop offset="0.8" stop-color="#DADADA"/>
<stop offset="1" stop-color="#C5C5C5"/>
</linearGradient>
</defs>
</svg>
