<svg width="14" height="15" viewBox="0 0 14 15" fill="none" xmlns="http://www.w3.org/2000/svg">
<path d="M14 7.38281C14 6.37109 13.3438 5.49609 12.4141 5.14062C12.8242 4.26562 12.6602 3.17188 11.9492 2.43359C11.2109 1.72266 10.1172 1.55859 9.24219 1.96875C8.88672 1.03906 8.01172 0.382812 7 0.382812C5.96094 0.382812 5.08594 1.03906 4.73047 1.96875C3.85547 1.55859 2.76172 1.72266 2.05078 2.43359C1.3125 3.17188 1.14844 4.26562 1.55859 5.14062C0.628906 5.49609 0 6.37109 0 7.38281C0 8.42188 0.628906 9.29688 1.55859 9.65234C1.14844 10.5273 1.3125 11.6211 2.05078 12.332C2.76172 13.0703 3.85547 13.2344 4.73047 12.8242C5.08594 13.7539 5.96094 14.3828 7 14.3828C8.01172 14.3828 8.88672 13.7539 9.24219 12.8242C10.1445 13.2344 11.2109 13.0703 11.9492 12.332C12.6602 11.6211 12.8242 10.5273 12.4141 9.65234C13.3438 9.29688 14 8.42188 14 7.38281ZM10.0352 6.17969L6.45312 9.73438C6.31641 9.87109 6.125 9.84375 6.01562 9.73438L3.9375 7.65625C3.82812 7.54688 3.82812 7.35547 3.9375 7.21875L4.64844 6.50781C4.78516 6.39844 4.97656 6.39844 5.08594 6.53516L6.23438 7.68359L8.88672 5.05859C9.02344 4.92188 9.21484 4.92188 9.32422 5.05859L10.0352 5.76953C10.1445 5.87891 10.1445 6.07031 10.0352 6.17969Z" fill="#1BC755"/>
</svg>
