<svg width="53" height="42" viewBox="0 0 53 42" fill="none" xmlns="http://www.w3.org/2000/svg">
<path d="M51.5938 30.7188H50.4688V23.125C50.4688 22.2812 50.0469 21.3672 49.4141 20.7344L42.4531 13.7734C41.8203 13.1406 40.9062 12.7188 40.0625 12.7188H36.9688V9.34375C36.9688 7.51562 35.4219 5.96875 33.5938 5.96875H11.0938C9.19531 5.96875 7.71875 7.51562 7.71875 9.34375V31.8438C7.71875 33.7422 9.19531 35.2188 11.0938 35.2188H12.2188C12.2188 38.9453 15.2422 41.9688 18.9688 41.9688C22.6953 41.9688 25.7188 38.9453 25.7188 35.2188H34.7188C34.7188 38.9453 37.7422 41.9688 41.4688 41.9688C45.1953 41.9688 48.2188 38.9453 48.2188 35.2188H51.5938C52.1562 35.2188 52.7188 34.7266 52.7188 34.0938V31.8438C52.7188 31.2812 52.1562 30.7188 51.5938 30.7188ZM18.9688 38.5938C17.0703 38.5938 15.5938 37.1172 15.5938 35.2188C15.5938 33.3906 17.0703 31.8438 18.9688 31.8438C20.7969 31.8438 22.3438 33.3906 22.3438 35.2188C22.3438 37.1172 20.7969 38.5938 18.9688 38.5938ZM41.4688 38.5938C39.5703 38.5938 38.0938 37.1172 38.0938 35.2188C38.0938 33.3906 39.5703 31.8438 41.4688 31.8438C43.2969 31.8438 44.8438 33.3906 44.8438 35.2188C44.8438 37.1172 43.2969 38.5938 41.4688 38.5938ZM47.0938 23.9688H36.9688V16.0938H40.0625L47.0938 23.125V23.9688Z" fill="#C80935"/>
<path d="M10.7188 2C5.90234 2 2 5.90234 2 10.7188C2 15.5352 5.90234 19.4375 10.7188 19.4375C15.5352 19.4375 19.4375 15.5352 19.4375 10.7188C19.4375 5.90234 15.5352 2 10.7188 2Z" fill="white"/>
<path fill-rule="evenodd" clip-rule="evenodd" d="M0 10.7188C0 4.79777 4.79777 0 10.7188 0C16.6397 0 21.4375 4.79777 21.4375 10.7188C21.4375 16.6397 16.6397 21.4375 10.7188 21.4375C4.79777 21.4375 0 16.6397 0 10.7188ZM2 10.7188C2 5.90234 5.90234 2 10.7188 2C15.5352 2 19.4375 5.90234 19.4375 10.7188C19.4375 15.5352 15.5352 19.4375 10.7188 19.4375C5.90234 19.4375 2 15.5352 2 10.7188Z" fill="#C80935"/>
<path d="M17.5156 10.5938C17.4902 7.11523 14.6719 4.29688 11.2188 4.29688C9.51758 4.29688 7.99414 4.98242 6.85156 6.04883L5.60742 4.80469C5.35352 4.55078 4.92188 4.72852 4.92188 5.08398V8.76562C4.92188 8.99414 5.09961 9.17188 5.32812 9.17188H9.00977C9.36523 9.17188 9.54297 8.74023 9.28906 8.48633L7.99414 7.19141C8.83203 6.4043 9.97461 5.92188 11.2188 5.92188C13.7832 5.92188 15.8906 8.0293 15.8906 10.5938C15.8906 13.1836 13.7832 15.2656 11.2188 15.2656C10.1016 15.2656 9.11133 14.9102 8.29883 14.2754C8.07031 14.0723 7.71484 14.0977 7.48633 14.3262L7.20703 14.6055C6.95312 14.8594 6.97852 15.291 7.25781 15.5195C8.32422 16.3828 9.7207 16.916 11.2188 16.8906C14.6719 16.8906 17.5156 14.0723 17.5156 10.5938ZM12.9199 12.5996L13.1484 12.2695C13.377 12.0156 13.3262 11.6348 13.0469 11.4316L12.0312 10.6191V7.95312C12.0312 7.62305 11.752 7.34375 11.4219 7.34375H11.0156C10.6602 7.34375 10.4062 7.62305 10.4062 7.95312V11.4062L12.0566 12.7012C12.3105 12.9043 12.6914 12.8535 12.9199 12.5996Z" fill="#C80935"/>
</svg>
