<svg width="352" height="72" viewBox="0 0 352 72" fill="none" xmlns="http://www.w3.org/2000/svg">
	<path d="M78.0855 0.0400391L57.0155 43.22V16.7L43.6155 31.78V70.67H57.7755L93.2555 0.0400391H78.0855Z" fill="white" />
	<path d="M38.0055 33.1302L57.0155 16.7002L42.9555 16.7102L38.0055 33.1302Z" fill="white" />
	<path d="M18.1654 23.6504C4.73543 23.6504 0.165426 28.2504 0.165426 28.2504V39.2004C20.9054 26.2004 26.6854 41.0904 26.6854 41.0904C26.6854 41.0904 28.2354 44.5204 26.6854 47.6004C26.6854 47.6004 27.9154 40.5304 18.5754 40.7204C16.3844 40.8325 14.2324 41.3443 12.2254 42.2304C8.11722 43.7887 4.66126 46.698 2.42542 50.4804C1.44381 52.2812 0.739234 54.2196 0.335424 56.2304C-0.105614 58.0484 -0.111808 59.9448 0.31735 61.7657C0.746508 63.5866 1.59893 65.2807 2.80543 66.7104C4.27308 68.3062 6.16264 69.4538 8.25542 70.0204C18.4754 73.0204 33.7454 65.4104 37.2554 50.3104C40.7654 35.2104 31.5954 23.6504 18.1654 23.6504ZM15.6154 60.5104C8.40542 63.6804 7.68542 46.9804 25.4754 50.1204C25.4754 50.1204 22.8154 57.3504 15.6154 60.5104Z" fill="white" />
	<path d="M96.2155 70.6696C109.645 70.6696 114.215 66.0596 114.215 66.0596V55.1196C93.4655 68.1196 87.6955 53.2296 87.6955 53.2196C87.2528 52.1915 87.0244 51.0839 87.0244 49.9646C87.0244 48.8453 87.2528 47.7377 87.6955 46.7096C87.6955 46.7096 86.4655 53.7996 95.8055 53.5996C97.9931 53.4862 100.142 52.9745 102.145 52.0896C106.256 50.5309 109.713 47.6173 111.945 43.8296C112.936 42.0368 113.65 40.1052 114.065 38.0996C114.51 36.2802 114.518 34.3815 114.088 32.5584C113.659 30.7354 112.805 29.0396 111.595 27.6096C110.132 26.0086 108.241 24.86 106.145 24.2996C95.9255 21.2996 80.6555 28.9096 77.1455 44.0096C73.6355 59.1096 82.8055 70.6696 96.2255 70.6696H96.2155ZM98.7755 33.8196C105.975 30.6596 106.695 47.3596 88.9055 44.2196C88.9055 44.2196 91.5755 36.9896 98.7755 33.8196Z" fill="white" />
	<path d="M332.895 70.6696C346.325 70.6696 350.895 66.0596 350.895 66.0596V55.1196C330.135 68.1196 324.375 53.2296 324.365 53.2196C323.926 52.1908 323.699 51.0835 323.699 49.9646C323.699 48.8457 323.926 47.7384 324.365 46.7096C324.365 46.7096 323.136 53.7996 332.476 53.5996C334.663 53.4887 336.812 52.9769 338.816 52.0896C342.931 50.5335 346.391 47.6196 348.626 43.8296C349.616 42.0368 350.33 40.1052 350.746 38.0996C351.187 36.28 351.194 34.3819 350.765 32.5592C350.336 30.7366 349.483 29.0408 348.276 27.6096C346.812 26.0086 344.921 24.86 342.825 24.2996C332.595 21.2996 317.335 28.9096 313.825 44.0096C310.315 59.1096 319.485 70.6696 332.915 70.6696H332.895ZM335.455 33.8196C342.645 30.6596 343.375 47.3596 325.585 44.2196C325.585 44.2196 328.245 36.9896 335.455 33.8196Z" fill="white" />
	<path d="M129.935 69.6503C123.889 66.6903 120.865 61.0237 120.865 52.6503C120.881 48.0497 121.97 43.5162 124.045 39.4103C126.107 34.9486 129.261 31.0791 133.215 28.1603C136.598 25.533 140.734 24.0608 145.015 23.9603C147.262 23.9438 149.478 24.4722 151.475 25.5003C157.529 28.4003 160.555 34.037 160.555 42.4103C160.521 47.0134 159.419 51.5457 157.335 55.6503C155.277 60.1142 152.123 63.9844 148.165 66.9003C144.791 69.528 140.661 71.0005 136.385 71.1003C134.143 71.1158 131.927 70.6199 129.905 69.6503H129.935ZM145.065 34.4003C143.585 34.4003 141.945 35.317 140.145 37.1503C138.146 39.2988 136.572 41.8062 135.505 44.5403C134.232 47.5027 133.553 50.6862 133.505 53.9103C133.505 58.1637 134.725 60.287 137.165 60.2803C138.655 60.2803 140.285 59.3703 142.105 57.5803C144.132 55.4071 145.721 52.8642 146.785 50.0903C148.05 47.1779 148.73 44.0451 148.785 40.8703C148.785 36.557 147.559 34.4003 145.105 34.4003" fill="white" />
	<path d="M264.025 23.8201L251.755 70.8201H238.035L250.335 23.8201H264.025ZM260.855 16.2001C258.826 16.3239 256.811 15.7833 255.115 14.6601C254.402 14.2346 253.81 13.6334 253.395 12.9139C252.98 12.1944 252.756 11.3805 252.745 10.5501C252.771 9.69531 252.999 8.85886 253.411 8.10955C253.823 7.36024 254.407 6.7195 255.115 6.24006C256.772 4.99812 258.785 4.32154 260.855 4.31006C262.888 4.19129 264.904 4.73136 266.605 5.85006C267.321 6.2743 267.915 6.87494 268.332 7.59453C268.748 8.31413 268.973 9.12861 268.985 9.96006C268.962 10.8164 268.734 11.6546 268.32 12.4045C267.905 13.1544 267.318 13.7941 266.605 14.2701C264.945 15.5121 262.929 16.1886 260.855 16.2001Z" fill="white" />
	<path d="M276.655 70.6998L284.245 42.1898C284.81 41.0959 285.581 40.1214 286.515 39.3198C287.515 38.4598 288.515 37.6298 289.515 36.8398C290.572 35.8551 291.935 35.2622 293.375 35.1598C293.959 35.152 294.524 35.3665 294.955 35.7598C295.436 35.9936 295.84 36.3596 296.12 36.8148C296.399 37.27 296.544 37.7955 296.535 38.3298C296.53 38.6691 296.476 39.0059 296.375 39.3298L288.155 70.6998H301.785L310.095 39.3098C310.306 38.3747 310.406 37.4182 310.395 36.4598C310.395 30.8198 307.689 26.7898 302.275 24.3698C301.214 24.0793 300.116 23.9445 299.015 23.9698C295.2 24.0615 291.475 25.1547 288.215 27.1398L288.965 23.9698H275.335L263.035 70.6998H276.655Z" fill="white" />
	<path d="M182.755 42.1896C183.318 41.094 184.089 40.119 185.025 39.3196C186.025 38.4596 187.025 37.6296 188.025 36.8396C189.081 35.8583 190.438 35.2658 191.875 35.1596C192.459 35.1571 193.024 35.3667 193.465 35.7496C193.947 35.9841 194.352 36.3516 194.632 36.8088C194.912 37.2659 195.056 37.7936 195.045 38.3296C195.042 38.6698 194.984 39.0073 194.875 39.3296L186.665 70.7096H200.295L208.605 39.3196C208.821 38.3852 208.921 37.4282 208.905 36.4696C208.905 30.8296 206.199 26.7996 200.785 24.3796C199.724 24.089 198.626 23.9543 197.525 23.9796C193.713 24.0687 189.991 25.1622 186.735 27.1496L187.475 23.9796H173.825L161.545 70.7096H175.165L182.755 42.1896Z" fill="white" />
	<path d="M232.586 59.08C231.539 59.5553 230.42 59.8527 229.276 59.96C229.142 59.9704 229.009 59.9704 228.876 59.96C228.057 59.7178 227.317 59.2624 226.732 58.6404C226.147 58.0184 225.737 57.2522 225.546 56.42C224.366 52.08 227.196 45.74 228.346 41.42L232.736 25C235.246 15.65 236.126 11.2 238.636 1.85001C238.765 1.22385 238.932 0.606053 239.136 0H226.136C224.006 8 223.496 11.15 221.346 19.18C219.686 25.4067 218.019 31.64 216.346 37.88C214.546 44.62 212.246 51.39 211.626 58.37C211.316 61.9 211.886 64.92 214.306 67.61C215.464 68.872 216.872 69.8794 218.44 70.568C220.008 71.2566 221.703 71.6115 223.416 71.61C225.451 71.5414 227.468 71.2052 229.416 70.61L232.586 59.08Z" fill="white" />
</svg>
	