<svg width="27" height="22" viewBox="0 0 27 22" fill="none" xmlns="http://www.w3.org/2000/svg">
	<path d="M24.75 0.5H2.25C0.984375 0.5 0 1.53125 0 2.75V19.25C0 20.5156 0.984375 21.5 2.25 21.5H24.75C25.9688 21.5 27 20.5156 27 19.25V2.75C27 1.53125 25.9688 0.5 24.75 0.5ZM9 11.5625C9 11.2812 9.23438 11 9.5625 11H12.5625C12.8438 11 13.125 11.2812 13.125 11.5625V13.4375C13.125 13.7656 12.8438 14 12.5625 14H9.5625C9.23438 14 9 13.7656 9 13.4375V11.5625ZM7.5 17.9375C7.5 18.2656 7.21875 18.5 6.9375 18.5H3.5625C3.23438 18.5 3 18.2656 3 17.9375V17.5625C3 17.2812 3.23438 17 3.5625 17H6.9375C7.21875 17 7.5 17.2812 7.5 17.5625V17.9375ZM8.25 13.4375C8.25 13.7656 7.96875 14 7.6875 14H3.5625C3.23438 14 3 13.7656 3 13.4375V11.5625C3 11.2812 3.23438 11 3.5625 11H7.6875C7.96875 11 8.25 11.2812 8.25 11.5625V13.4375ZM16.5 17.9375C16.5 18.2656 16.2188 18.5 15.9375 18.5H9.5625C9.23438 18.5 9 18.2656 9 17.9375V17.5625C9 17.2812 9.23438 17 9.5625 17H15.9375C16.2188 17 16.5 17.2812 16.5 17.5625V17.9375ZM18 13.4375C18 13.7656 17.7188 14 17.4375 14H14.4375C14.1094 14 13.875 13.7656 13.875 13.4375V11.5625C13.875 11.2812 14.1094 11 14.4375 11H17.4375C17.7188 11 18 11.2812 18 11.5625V13.4375ZM24 13.4375C24 13.7656 23.7188 14 23.4375 14H19.3125C18.9844 14 18.75 13.7656 18.75 13.4375V11.5625C18.75 11.2812 18.9844 11 19.3125 11H23.4375C23.7188 11 24 11.2812 24 11.5625V13.4375ZM24 6.875C24 7.53125 23.4844 8 22.875 8H19.125C18.4688 8 18 7.53125 18 6.875V4.625C18 4.01562 18.4688 3.5 19.125 3.5H22.875C23.4844 3.5 24 4.01562 24 4.625V6.875Z" fill="#C80935" />
</svg>
	